In file included from ../../../../../../taller2/lista_tests.cpp:2:0:
./Lista.h: In member function ‘Lista::Nodo* Lista::iesimoNodo(Nat)’:
./Lista.h:94:13: warning: comparison between signed and unsigned integer expressions [-Wsign-compare]
     while(j < i && i < this->longitud())
           ~~^~~
./Lista.h:94:22: warning: comparison between signed and unsigned integer expressions [-Wsign-compare]
     while(j < i && i < this->longitud())
                    ~~^~~~~~~~~~~~~~~~~~
In file included from ./Lista.h:101:0,
                 from ../../../../../../taller2/lista_tests.cpp:2:
./Lista.hpp: In member function ‘void Lista::eliminar(Nat)’:
./Lista.hpp:64:10: warning: comparison between signed and unsigned integer expressions [-Wsign-compare]
     if(i < length-1) {
        ~~^~~~~~~~~~
./Lista.hpp:70:19: warning: comparison between signed and unsigned integer expressions [-Wsign-compare]
     if(i > 0 && i < length-1) {
                 ~~^~~~~~~~~~
./Lista.hpp: In member function ‘const int& Lista::iesimo(Nat) const’:
./Lista.hpp:90:13: warning: comparison between signed and unsigned integer expressions [-Wsign-compare]
     while(j < i && i < this->longitud())
           ~~^~~
./Lista.hpp:90:22: warning: comparison between signed and unsigned integer expressions [-Wsign-compare]
     while(j < i && i < this->longitud())
                    ~~^~~~~~~~~~~~~~~~~~
